{"width": 32,

"height":32,

"entities":[
{"name": "EndGameEntity",
   "type": "static",
  "posX": 15,
  "posY": 18},{"name": "EndGameEntity",
   "type": "static",
  "posX": 16,
  "posY": 18},
],

"animations":[
    {"index":0,
    "path": "AbuUpstairs\/planta",
    "numFrames": 1
    }
],

"sound" : "casa"
}